*** Life<FredkinCell> 38x35 ***

Generation = 0, Population = 16.
-----------------------------------
-----------------------------------
-----------------------------------
-----------------------------------
-----------------------------------
----------------0--------0---------
-----------------------------------
-----------------------------------
-----------------------------------
-----------------------------------
-----------------0-----------------
-----------------------------------
----------------0----0-------------
-----------------------------------
-----------------------------------
-----------------------------------
-----------------------------------
----------------------------------0
-----0-----------------------------
-----------------------------------
-----------------------------------
--0-------------------------0------
-------------------0---------------
-----------------------------------
--------------------------------0--
-----------------------------------
-------0---------------------0-----
--------------------------------0--
-----------------------------------
--0--------------------------------
-----------------------------------
-----------------------------------
-----------------------------------
-------------------0---------------
-----------------------------------
-----------------------------------
-----------------------------------
-----------------------------------

Generation = 33, Population = 214.
--2----------------1---------------
-2-0--------------2-3--------------
--0----------------7------------1--
-------0---------------------1-0-2-
-----21-2----21-------1-----1-3-5--
----3-70----0463-----4-3-----2--5--
-----2-------13-------1--------1-5-
-------------------2------------5--
--1---------------1-3-------2------
-1-1---------2-----6-2-----4-0-----
--2---------5-3----32-0-----1------
-----2---3---00--31-321------------
----1-7-2-3--3-22-25-3-2----------3
-----1---2----2--3----1----------0-
--2-------------------------------2
-0-0-------------------------------
----1---------------------------3--
-0---2-3--------7----3---5---2-3---
--2-2-2-1------0-4--1-3-0-1-2-1---1
-------0--------20---2---4---1--61-
--1-------1-----6-4---------0--2-23
-0-1-----2-------6---------5-4--52-
------------2---------------------2
30-1--2----2---------------2-0-----
-00--1-2--------6--------7--+------
11---21--1-----5-8-----28-1----0---
--0-0---0-1-----2-----3-35----3-5-1
-------1-3-------------1-------0-0-
0-----1---------------------2------
---------------------------1-3---0-
----------------------------2-----1
----------------8----2-------------
-----------1---2-4-51-1------------
----------5-3---120-40-------------
-----------2----0-11---------------
-----------------1-----------------
----------------1--------4---------
---------------2-1------2-4--------

Generation = 66, Population = 216.
--------------7-+9+2-4-7-----------
----------------------------------8
-----6---------79--+-+-------------
--------2--------+------9-------+34
---6---8---------+-----------------
--+---+---8----+9--+--+--73-+--6--7
-----8-------------+---------------
8---3---3-----3--43----2+-34--+--4-
---------2-------7---+---8------7--
--3-------------+--------8--+------
--------8--2-4-----5---98--4--6---6
--------------------------------+--
-----++---6+---8------9--99-----+--
--8---------------------------2---5
-------47----5----------7----------
4---2---------------------8-2---8--
-8-----------8---------------------
--4-------------+--6----++9-+-6----
---2-------5---4-------------------
----+-----8---7--48-+4-4--93+-----+
-6---------2-7-------------6-------
--6---5-+---+---+-++--+--8------+-6
---------2---3---2------+8---88----
----+-----7---------8-------------5
-----------+----+--4--7---73+---++-
------------------------+-----+----
-------------77---4-----6-----99---
----7-----7--------9--+---8-9---7--
---------------1+----------------9-
--9---9-6---+----4---6--9-----6---7
-----2-----------------------------
--6-9-----89-------9-------4----6-4
---5---8---------------------------
8-9-4----+---6-----------+--+9--+-+
-----9-6-----------9---------+-----
3-7-5------6--------------58------5
-----8---4-------4---+-----2---3---
--5-------------------------7---7--

*** Life<FredkinCell> 22x13 ***

Generation = 0, Population = 8.
-------------
-------------
-------------
-------------
-------------
-------------
-------------
-------------
-------------
-------------
---0---------
0------------
-----0-------
-------------
-------------
--0----------
--------0----
-------------
-------------
------0-0----
----0--------
-------------

Generation = 8, Population = 25.
-------------
-------------
---0---------
0------------
-----0-------
-------------
-------------
--0----------
--------0----
-------------
---0-------0-
-------------
-0--1--------
-------------
-------------
----0-----2--
0---1-----0--
------1-2----
---1---------
0---------0-1
--1--1--0---1
--0----------

Generation = 16, Population = 31.
--------0----
-------------
-----0-------
0-----2-1----
---00--------
-------------
-------------
-------------
----0--------
------0-0----
-------0---0-
----------2-0
-----3--52---
--2----------
-------------
--------4---1
--3--45------
1------------
---2---------
--1-4-5-3----
------3---0--
-------------

Generation = 24, Population = 66.
0---0-----0--
------2-2----
-1-14--2---0-
0------------
--21----42-01
--0----------
--------1----
--------1---0
-----44-1---1
1---------0-2
-----1-2---1-
0-----5-2----
1--13-4--4---
----1-----5--
-------------
4---3-5---5--
74----6-----2
--1-4-4-4----
-------1-----
1-4-6-----5-3
4-----6--0--6
--2-----2---4

Generation = 32, Population = 31.
-----3-------
3-0----------
---5----6----
-------------
-------------
------4-2----
----0--------
-------------
-------------
-------------
----5--5-----
--4-6-+-3----
-7-------4---
-------------
--------5----
8-6---8------
----3-------2
-------------
-----4-------
3-6-7-----8-7
6--5----3----
-------------

Generation = 40, Population = 94.
-2--0--------
----3-----2--
4--58--5--52-
--2-5-4-7----
-4-5----86---
4-1-------1-5
--1--4--2---2
4-3---+------
----58------3
5-2----------
--36-4--3--26
4---------6-4
47-3-4--8----
------6-8----
2---5-----4--
8---5-9-+-8-4
8-634-+-+---3
6-2-8-----+-4
-2--84-3-----
--9-+-+-+-+-8
83-7+-8-81728
4-7---5------

Generation = 48, Population = 93.
----28--86--5
--------4-3--
-85--728-5-5-
4-----7-+-4-1
5--56--2+----
--5-+-8-4----
------1---2--
-------------
8--36---2----
5-3-9-+-7-4-7
---8-+49--1--
--6-9-----8-6
-+-7+5--+7--7
------6------
--2--94-7----
----8-----+--
+69--++--5+--
+---8-+-+----
---7+9-575---
--+-+-+-+----
--7---+9--+2+
------6-8----

*** Life<FredkinCell> 21x38 ***

Generation = 0, Population = 14.
---------------0----------------------
--------------------------------------
--------------------------------------
--------------------------------------
--------------------------------------
--------------------------------------
--------------------------------------
---0----------------------------------
--------------------------0-----------
---------0-----------------0----------
--------------------------------------
----------------------0---------------
--------------------------------------
--------------------------------------
------------------0-------------------
--------------------------------------
--------------------------------------
------------------00------------------
------0----------------------------0--
------------------0-------------------
-------0-------0----------------------

Generation = 21, Population = 339.
-----11302---1--1-60-23---331---------
--0---0-0----0-201-310-40--20--------0
-0----0-1-----012231---3-14---------0-
---10-00--0-00----3400-1-010---0--01-0
--0202-0-4-1-12--12-0-21-22---010-211-
--------------1---0-------1----1------
--0-0120---2-33-----22-1-0---0---03-0-
--00-1----0--15--35-----0------1---3-0
---0-1--00-2-1624172-12----0-0311---34
0-0-----0-0--14---+-36-41---0-02--1-06
--1---341-02--1---30-0-0-0-------0-1-4
-0-21-00-0-40-10-2550221--2--------2--
-------3--20-1243----050-0-1--------1-
0021--0---122-01-2631---021-0-1-022-0-
-0----3---111------4-2-21----1-0-1-1--
0123012-1--------16---32--10--00-0-2--
0-22-1140-3-10---0-30-732-5-----2-1--0
-14--5-63--3--4----2-4-53-5---30--2-2-
-014--3-3--0-----1-324---3-121-10010-0
-----04----11--1--5----2-0----2--03---
0--41-3--10-0-1-1----2220220--0-----0-

*** Life<FredkinCell> 30x2 ***

Generation = 0, Population = 20.
-0
--
-0
00
--
-0
--
00
--
0-
0-
--
--
-0
-0
--
--
--
--
--
-0
0-
--
0-
0-
--
-0
--
00
00

Generation = 19, Population = 27.
--
5-
--
93
4-
4+
1-
--
--
83
+4
+6
2-
--
24
--
--
32
--
82
--
-6
-3
--
-5
-7
4-
55
--
--

Generation = 38, Population = 24.
++
++
-+
++
-9
--
--
3-
-5
--
+9
--
--
-8
3+
--
-+
+9
--
--
--
9-
--
44
--
++
--
--
+-
--

Generation = 57, Population = 28.
--
+-
++
--
++
-+
-+
-9
--
-+
-+
--
-+
--
--
8+
--
-+
-+
+-
++
-+
+9
--
++
--
--
++
+-
++

Generation = 76, Population = 29.
+-
++
--
+-
++
+-
--
-+
+9
-+
-+
++
-+
-+
+-
--
++
+-
++
+-
--
++
--
--
--
--
++
+-
--
+-

Generation = 95, Population = 34.
+-
+-
++
++
++
+-
-+
--
-+
+-
++
++
-+
+-
--
++
+-
-+
+-
--
+-
--
++
+-
++
++
-+
--
++
--

Generation = 114, Population = 28.
-+
--
-+
-+
-+
+-
+-
-+
+-
--
-+
+-
-+
-+
++
-+
+-
--
-+
-+
+-
-+
+-
-+
--
++
++
-+
--
-+

Generation = 133, Population = 35.
-+
-+
--
+-
+-
-+
++
+-
++
++
+-
-+
++
-+
-+
-+
+-
--
-+
-+
-+
++
++
+-
++
-+
--
--
++
++

Generation = 152, Population = 36.
++
+-
++
+-
+-
++
++
-+
+-
+-
+-
--
-+
-+
+-
-+
++
+-
--
--
++
+-
--
++
++
++
--
++
+-
++

Generation = 171, Population = 33.
+-
+-
--
++
+-
-+
--
+-
-+
-+
+-
--
+-
-+
-+
-+
-+
++
++
-+
+-
+-
++
++
--
++
++
-+
++
--

Generation = 190, Population = 31.
--
-+
--
--
-+
++
++
--
--
+-
++
++
--
++
++
--
-+
++
-+
+-
++
+-
-+
+-
--
-+
-+
-+
+-
++

*** Life<FredkinCell> 18x11 ***

Generation = 0, Population = 18.
---00------
0----------
-0---------
-0---------
---0-------
-----------
-----------
-----------
-----------
-------0---
---------0-
---0-------
-----------
-00--------
-0------0--
0---0-----0
---0-------
---0-------

Generation = 2, Population = 45.
--12210----
000--------
---00------
1--1-------
-----0-----
-0---------
---0-------
-------0---
---------0-
---0-0---1-
-------1---
--1--0-0---
-1------00-
----------0
------0---1
0000--0-1-0
-----0--0--
00-210----0

Generation = 4, Population = 59.
10-2---10--
2-0-0------
-2-021-----
-2---1-----
---11--0---
1------0---
-1-------0-
-0-1-------
---1-------
-010-------
-0---0--11-
0---1--2--0
---0-------
01-0-010---
-2--01---11
2-0-1-2----
---1---1---
220-1--0--0

*** Life<FredkinCell> 43x39 ***

Generation = 0, Population = 18.
----------------0----------------------
---------------------------------------
------------------------0--------------
---------------------------------------
---------------------------------------
---------------------------------------
---------------------------------------
---------------------------------------
---0-----------------------------------
---------------------------------------
-----------------0----------------0----
-0-------------------------------------
---------------------------------------
---------------------------------------
---------------------------------------
---------------------------------------
---0-----------------------------------
---------------------------------------
---------------------------------------
---------------------------------------
----------------------------0----------
---------------------------------------
-------------------------0-------------
---------------------------------------
-----------------------------------0---
---------------------------------------
---------------------------------------
---------------------------------------
---------------------------------------
-----------------0---------------------
---------------------------------------
---------------------------------------
--0---0--------------------------------
--0------------------------------------
---------------------------------------
------------------------------0--------
---------------0-----------------------
---------------------------------------
---------------------------------------
---------------------------------------
------------------0--------------------
---------------------------------------
---------------------0-----------------

Generation = 48, Population = 247.
8--5----7---2-3-------0----2--5-3--4---
-6----------2-----2--------------1-----
------9-5------+-----74---------------3
-2------------0--------------10-23-----
------------34---68--7------53-2--2----
--4------------------------------------
--83-23-----------75-4---4---------5---
---------------------------------------
--85-----5---------2-------6------1--1-
-----------------6---------------------
-66--8-------5-6--7---------69---46--9-
-------------7---+-----------81--2-----
-----82---------------4-0------------0-
--+----------2---2-----------6---------
------4----7--4-6--5----------5---43---
---------------------------------------
--7---4----5--4-9--4----86-00-3---72--4
--5--------------6----------1-----5----
------3---------------5-6---3--6-------
1------------+2-46------------2-6------
-45---------5---------------3--0-59----
------------6-----6--------------------
---+-6--85-86-----+6-85------------6-4-
---------------------------------------
-----------24-----+3-----4--+------7---
-6-------------------------------2-----
--7------4--25---9---3---5--+2----1----
-----------------------------5---0-----
--------18-------7---+---6--------7---4
-3-----------6---------------4---4-----
5-----------+-----53-------1+---6------
---------------------------------------
8--1----55--8-----+---6-+--7+---3-+5-34
------------3-----7---------6-----5----
--------7---3------------------5--7---4
-3------------4---------------3-4------
--7------------5-6+-----7---5-----+----
--5-------------------------4-----3----
--94-47----8----3--3-6--22--8-----+---4
---------------------------------------
--+4--------6---8--3--------4-----57---
-------------3---4-----------2---------
-6---3---4--------9-----94--+----4---8-

Generation = 96, Population = 237.
+-+--++-+--57-9---+--+9-------+-+------
-++---------7----++--------------4-----
--+---+-+--------++---+-----------+---7
-+------------2---------------7-+------
---------------9--------+------5-------
-------------+---------------+---------
----------------+--+-------------------
---------------------------------------
--++-----+-9----+-++----++-++------+-8+
----------------------------6-----+----
-++--+-------+----+--+--+----+---++--+-
9------------+--9+---------------------
--+--+------6+-+-----+------+9-4-----4-
---------------------------------------
--++-------+------++-----+-8------++---
---------------------------------------
---7-------++------+-------48----------
---------------------------------------
---------+-----+-+-------+-----8--+----
-------------+8--+------------6-+------
-++---+--+--+----+----+--+--+----+-----
--+---------+----++--------------------
--++-++-++-+--+---++-++-----+-+------8-
---------------------------------------
--+---9----7--+----+-------+--8--------
-++--------------+---------------+-----
------+--------+------9--------+-------
+---------------9-------------8--------
--------+------+--------+---9---------+
-+-----------+--------------+9---9+----
+---------------+--+----++-8+---+-+5--8
---------------------------------------
+-------++--+---+-----+-++-++---+-+--++
------------++----+---------+8----9----
--+-----+----+-------+--+---+7----+---+
+-------------+-7------------+--++-----
---------------+-----+-----------------
-----------------+---------------------
------------------+8-------------------
---------------------------------------
---+-++----++------+-+-----++-----++---
--+------------------------------------
-++--+---+-----+-+-------+--+----++--+-

Generation = 144, Population = 246.
+-----+-------+----------+-+--+-+-+----
--+--------------+---------------------
-----++-+-------------+-----+--+-----++
--------------9--------------++-++-----
-----+------++-+--+----------+-------+-
------------+----++--------------------
--++-+--+---+-----+--++----+------+----
---------------------------------------
--++--+-----------++-----+-+-------+---
-++------------------------------+-----
-++---------++----+--+-------+-+-+-----
-+-----------++--+-----------++-++-----
------+--------+-+---++-----------+----
------------++----+----------+---------
--------+---+-+----+--+----+--+--------
---------------------------------------
---------+-+--+---++----+--++-+---++-++
-+--------------------------8----++----
------+-----+--+-----++-----------+----
6+--------------+-------------+--------
--+---------+--9-++--+--+------+-------
--+------------------------------------
--++-++--+-+----+-+--+-----+---------+-
---------------------------------------
---+-----+-++---+--+--------+------+-+-
-----------------+---------------------
--+------+---+-+--------++---+----+----
-------------+---+-----------++--+-----
-+-------+--------+-----++--+----+-----
-++----------+---------------+---+-----
--+---+-----+---+-----------+------+---
---------------------------------------
---9----+---+---+-+---+-++-++-----++--+
------------+----++---------+-----+----
---------------+-+------+---+--+--+----
-+-----------++--+--------------+------
-++-----+------+------------+----+----+
----------------------------+-----+----
+--+-+-----+-------+-+--+---+---+-++--+
---------------------------------------
+-++-------++------------+--+---+-+----
-------------+---------------9---------
-----+--++-------+-------+--+-----+--++

*** Life<FredkinCell> 16x18 ***

Generation = 0, Population = 7.
----------0----0--
------------------
------------------
------------------
------------------
-----------------0
------------------
----0-------------
------------------
-----0------------
---------------0--
------------------
------------------
-------------0----
------------------
------------------

Generation = 32, Population = 25.
----8----46-----4-
------------------
----------7----8--
-----------------6
------------------
----4------2-6----
------------------
7----8----6------6
---------------7--
----+------5------
---------8-----4--
-----+-------+----
---------------+--
-------3---------8
------------------
-------------6----

Generation = 64, Population = 24.
4--+-----+----+---
-----------------+
----------+----+--
----+-------------
----------+----+--
-------+----------
---------------+--
------+---------+-
------------------
-----+-------+----
---9-----+--------
----+-------------
------------------
-9---+-----7------
---------------+--
-------------+----

Generation = 96, Population = 76.
9+--+-+-+-+---+-+-
----+------+-+----
+--++-----+---+-+-
+------+--+------+
----+----++----++-
-+--+-+------+--6-
---------++-------
+----+-+--+-+++---
---+-----+-----+--
----+-++---+----++
-+-+-----+-----+--
++--------9+-+----
---+-----+-----+--
---+++-8---+-+---+
---------+-----+--
-+---+-+---+-+---+

Generation = 128, Population = 25.
-++----+----+-----
-----+-----------+
---------------+--
------------------
------------------
---+-+-------+----
----------+----+--
--------+---------
----------+----+--
-------+---------+
-+-----+----------
-------------+----
------------------
---------+-------+
---------------+--
----++------------

Generation = 160, Population = 69.
---+--+-+---++-+--
-------------+----
-++----+-+--+--+--
---+---------+---+
----------+-------
-+-----+++-+-----+
----+----++-----+-
--++-+-+-----++--+
-+--+--+-++-----+-
-+------+--+-+----
-+-+---+--+--+-+--
---------+-------+
-+-----+-------+--
---+++-----+---+--
---------+-----+--
+---++---+++-----+

*** Life<FredkinCell> 7x26 ***

Generation = 0, Population = 25.
-------0--0-----------00--
0-----------0----------0--
-------------00--0------0-
--0------0-----------00---
------------0------00-----
--------------0----0-----0
--------0-0----0------0---

Generation = 26, Population = 68.
---794-6--66-55--2---7--4+
3-+1--6-----61--------9-5-
---4-65----43--8-1-4------
63----7---76--+---6--76---
-3---6-3-2----14-----4----
3--4----64-941866----6+-29
2--54-5--7---3-3----74-+--

Generation = 52, Population = 86.
+7-+++9+---++-+-+8+--+---+
9-+-8-+9--7-+5--97--+--6--
-7-+7-8+++-+---+-+----9---
+-+-8-+++--+--+-6-++--+-+-
-8-----7+---76----+---68--
8--+59-++--++-+----++++6--
--+++9-9---6+-+-++--+---+7

Generation = 78, Population = 88.
-++---+++----++++-++-++-++
---6--+++---++--+++--+--+-
++---+-+-++++++----+---++-
---+--+-+8-++-+-++--+-+-+-
-++--++8++--+9---+--+++++-
-+-+----++-+----+-+++++--+
-+--+++-5-++-------+++----

*** Life<FredkinCell> 31x5 ***

Generation = 0, Population = 12.
-----
--0--
-----
-----
-----
-----
---0-
----0
-----
-----
0----
-----
----0
-----
-----
-00-0
-----
-----
-----
-----
-----
-----
-----
--00-
-----
-----
-----
--0--
-----
---0-
-----

Generation = 20, Population = 64.
2---6
-----
5-10-
3--05
--363
2---1
--24-
6-029
--75-
--32-
--707
-2444
4-75-
3-2-2
--6-7
-9+-5
2-3--
0-3-1
---2-
-1---
-----
--24-
1--0-
----3
----4
---3-
--211
--3-9
1-0--
-----
1---2

Generation = 40, Population = 35.
---3-
5---6
--5-+
-----
9-+--
6---8
---6-
++--+
-----
3---8
--+-9
-----
8-+--
-----
---6-
-+-+-
-----
-----
--9-8
4---+
3-3--
---9-
-----
++36-
-----
---4-
-----
-----
-----
---4-
-----

Generation = 60, Population = 71.
+---+
---6-
+-74-
-748+
--+++
+---9
--+++
-+98+
9-++-
9--++
4--4+
9-8--
+---8
---+-
+---+
++-++
8--87
8---8
---7-
---+-
---8-
6--+5
6--46
++--+
5---9
---8-
+---9
-2---
+--87
5---+
---+-

Generation = 80, Population = 38.
-----
+---+
+-9--
-----
--+-+
-----
---+-
+--8+
---+-
-----
--+-+
+---+
+-+--
+--++
-----
-++-+
-----
+--++
-----
+---+
-----
-----
---4-
+-+--
-----
-----
--+-+
+---+
+-6--
---+-
-----

Generation = 100, Population = 34.
-----
-----
---9-
+-6--
-----
+---+
--+++
+-+--
+-+--
-----
--+6+
++--+
+-+--
-----
--+-+
-++-+
+-+--
-----
-----
+38+-
-----
-----
-----
---+-
-----
---+-
-----
---+-
-----
-----
-----

Generation = 120, Population = 47.
-----
+---+
+-+--
+---+
--+-+
---+-
---+-
++++-
---+-
---+-
8---+
-----
+---+
+--++
-----
-+-+-
---+-
+--++
-----
+---+
-----
+---+
---7-
++--+
-----
+---+
+---+
+---+
+---+
---+-
---+-

Generation = 140, Population = 55.
+--++
+---+
--+-+
++--+
+-++-
+---+
---+-
++--+
-----
-----
--+-+
+--++
+-+--
+---+
---+-
++-++
-----
---+-
--+++
--+-+
+-+--
-----
--+-+
-++++
+-+--
---+-
-----
+4++-
-----
---+-
-----

Generation = 160, Population = 18.
-----
+---+
-----
-----
-----
-----
---+-
+-+--
-----
-----
--+-+
-----
+-+--
-----
-----
-++-+
-----
-----
-----
-----
-----
-----
-----
+--++
-----
-----
-----
+---+
-----
---+-
-----

Generation = 180, Population = 62.
+---+
-----
+-++-
+--++
--+++
+---+
+--++
---+-
+--++
+--++
--+++
-++++
+-++-
-----
--+-+
-++-+
+-+--
-----
---+-
-6---
-----
+--++
--+++
+-+--
+-+--
---+-
--+++
--+-+
+-9--
-----
+---+

*** Life<FredkinCell> 4x49 ***

Generation = 0, Population = 24.
----0-0----------0---------------------00-0------
-----00-0----------------------0-----------------
--0--------------------0------0------------------
----0---0------0---00-0--------0-0---0--0----0---

Generation = 4, Population = 64.
0-------1-1--0-------0-0------0----01-1----10-0--
-01--20--10-0--2---02-0----0-----0-0-2--3----0---
0-1-1------------0-0---0--11--0---0----03-2------
1---210----11--01-34---10-00-0-0-0-012------0----

Generation = 8, Population = 69.
0---2-4--0--0-1--0-----2-0----012-0----61-1----0-
-1--2---1----2123--04-03-------0-1---2-04----0---
------1---3----2-0----1--------0------123-2------
2-2-2221---3--022--51-1--0-2001-11-----311---1--0
